// Jest Snapshot v1, https://goo.gl/fbAQLP

exports[`resolvers test Test hierarchies: regions 1`] = `
Object {
  "data": Object {
    "regions": Array [
      Object {
        "events": Array [
          Array [
            Object {
              "description": "basel.1-venue-1-event-1",
              "from": "2040-12-04T20:31:01+01:00",
              "until": null,
              "venue": Object {
                "region": Object {
                  "name": "basel.1",
                },
              },
            },
            Object {
              "description": "basel.1-venue-2-event-1",
              "from": "2040-12-04T20:31:02+01:00",
              "until": null,
              "venue": Object {
                "region": Object {
                  "name": "basel.1",
                },
              },
            },
            Object {
              "description": "basel.1-venue-1-event-2",
              "from": "2040-12-04T20:32:01+01:00",
              "until": null,
              "venue": Object {
                "region": Object {
                  "name": "basel.1",
                },
              },
            },
            Object {
              "description": "basel.1-venue-2-event-2",
              "from": "2040-12-04T20:32:02+01:00",
              "until": null,
              "venue": Object {
                "region": Object {
                  "name": "basel.1",
                },
              },
            },
          ],
        ],
        "name": "basel.1",
        "venues": Array [
          Object {
            "name": "basel.1-venue-1",
          },
          Object {
            "name": "basel.1-venue-2",
          },
        ],
      },
      Object {
        "events": Array [
          Array [
            Object {
              "description": "basel.2-venue-1-event-1",
              "from": "2040-12-04T20:31:01+01:00",
              "until": null,
              "venue": Object {
                "region": Object {
                  "name": "basel.2",
                },
              },
            },
            Object {
              "description": "basel.2-venue-2-event-1",
              "from": "2040-12-04T20:31:02+01:00",
              "until": null,
              "venue": Object {
                "region": Object {
                  "name": "basel.2",
                },
              },
            },
            Object {
              "description": "basel.2-venue-1-event-2",
              "from": "2040-12-04T20:32:01+01:00",
              "until": null,
              "venue": Object {
                "region": Object {
                  "name": "basel.2",
                },
              },
            },
            Object {
              "description": "basel.2-venue-2-event-2",
              "from": "2040-12-04T20:32:02+01:00",
              "until": null,
              "venue": Object {
                "region": Object {
                  "name": "basel.2",
                },
              },
            },
          ],
        ],
        "name": "basel.2",
        "venues": Array [
          Object {
            "name": "basel.2-venue-1",
          },
          Object {
            "name": "basel.2-venue-2",
          },
        ],
      },
    ],
  },
  "errors": undefined,
  "extensions": undefined,
  "http": Object {
    "headers": Headers {
      Symbol(map): Object {},
    },
  },
}
`;
